<?xml version="1.0"?>
<testResults>
  <FitNesseVersion>v20150114</FitNesseVersion>
  <rootPath>ScheduleApiChannels</rootPath>
    <result>
    <counts>
      <right>0</right>
      <wrong>0</wrong>
      <ignores>0</ignores>
      <exceptions>2</exceptions>
    </counts>
    <runTimeInMillis>1423</runTimeInMillis>
    <content>&lt;br/&gt;&lt;span class="meta"&gt;variable defined: TEST_SYSTEM=slim&lt;/span&gt;
&lt;br/&gt;&lt;span class="meta"&gt;classpath: /home/patnaj/repos/RestFixture/*&lt;/span&gt;&lt;br/&gt;&lt;table&gt;
	&lt;tr&gt;
		&lt;td&gt;&lt;span class="pass"&gt;Table:smartrics.rest.fitnesse.fixture.ext.SlimRestFixtureWithSeq&lt;/span&gt;&lt;/td&gt;
		&lt;td&gt;http://lgi.io/kraken/v2/schedule&lt;/td&gt;
		&lt;td colspan="3"&gt;getChannels.png viewBox="0 0 400 400" width="400" height="400"&lt;/td&gt;
	&lt;/tr&gt;
	&lt;tr&gt;
		&lt;td&gt;GET&lt;/td&gt;
		&lt;td&gt;&lt;div&gt;&lt;a href='http://lgi.io/kraken/v2/schedule/data/NL/channels.json'&gt;/data/NL/channels.json&lt;/a&gt;&lt;/div&gt;&lt;/td&gt;
		&lt;td&gt;&lt;div&gt;200&lt;/div&gt;&lt;/td&gt;
		&lt;td&gt;&lt;div&gt;Access-Control-Allow-Credentials&amp;nbsp;:&amp;nbsp;true&lt;br/&gt;Access-Control-Allow-Headers&amp;nbsp;:&amp;nbsp;x-auth-id,x-auth-key,app_key,app_id,Keep-Alive,User-Agent,X-Requested-With,X-Real-IP,X-Forwarded-For,If-Modified-Since,Cache-Control,Content-Type,authorization,X-HTTP-Method-Override&lt;br/&gt;Access-Control-Allow-Methods&amp;nbsp;:&amp;nbsp;GET,&amp;nbsp;POST,&amp;nbsp;PUT,&amp;nbsp;DELETE,&amp;nbsp;OPTIONS,&amp;nbsp;HEAD&lt;br/&gt;Access-Control-Allow-Origin&amp;nbsp;:&amp;nbsp;*&lt;br/&gt;Content-Type&amp;nbsp;:&amp;nbsp;application/json;&amp;nbsp;charset=utf-8&lt;br/&gt;Date&amp;nbsp;:&amp;nbsp;Sat,&amp;nbsp;07&amp;nbsp;Feb&amp;nbsp;2015&amp;nbsp;20:57:39&amp;nbsp;GMT&lt;br/&gt;Server&amp;nbsp;:&amp;nbsp;openresty&lt;br/&gt;Content-Length&amp;nbsp;:&amp;nbsp;1175&lt;br/&gt;Connection&amp;nbsp;:&amp;nbsp;keep-alive&lt;/div&gt;&lt;/td&gt;
		&lt;td&gt;//title[text()='RestFixtureInstallTest'] &lt;span class="error"&gt;&lt;div&gt;//title[text()='RestFixtureInstallTest']&lt;br/&gt;&lt;hr/&gt;&lt;br/&gt;&lt;code&gt;java.lang.IllegalArgumentException:&amp;nbsp;Cannot&amp;nbsp;evaluate&amp;nbsp;'//title[text()='RestFixtureInstallTest']'&amp;nbsp;in&amp;nbsp;{"data":[{"selfLink":{"href":"http://lgi.io/kraken/v2/schedule/data/NL/channels/sport1_extra1.json?fields=broadcastsLink,entitlementCodes,genres,horizonLink,logicalPosition,logoLink,name,opengraphLink,ref,selfLink,synopsis"}},{"selfLink":{"href":"http://lgi.io/kraken/v2/schedule/data/NL/channels/samanyolu_tv.json?fields=broadcastsLink,entitlementCodes,genres,horizonLink,logicalPosition,logoLink,name,opengraphLink,ref,selfLink,synopsis"}},{"selfLink":{"href":"http://lgi.io/kraken/v2/schedule/data/NL/channels/dance_trippin_tv.json?fields=broadcastsLink,entitlementCodes,genres,horizonLink,logicalPosition,logoLink,name,opengraphLink,ref,selfLink,synopsis"}},{"selfLink":{"href":"http://lgi.io/kraken/v2/schedule/data/NL/channels/testbeeld.json?fields=broadcastsLink,entitlementCodes,genres,horizonLink,logicalPosition,logoLink,name,opengraphLink,ref,selfLink,synopsis"}}],"nextBatchLink":{"href":"http://lgi.io/kraken/v2/schedule/data/NL/channels.json?limit=4&amp;offset=4&amp;fields=selfLink&amp;region.code=NL"},"paging":{"nextLink":{"href":"http://lgi.io/kraken/v2/schedule/data/NL/channels.json?limit=4&amp;offset=4&amp;fields=selfLink&amp;region.code=NL"},"total":154,"limit":4,"offset":0}}&lt;br/&gt;&amp;nbsp;&amp;nbsp;&amp;nbsp;&amp;nbsp;at&amp;nbsp;smartrics.rest.fitnesse.fixture.support.XPathBodyTypeAdapter.equals(XPathBodyTypeAdapter.java:77)&lt;br/&gt;&amp;nbsp;&amp;nbsp;&amp;nbsp;&amp;nbsp;at&amp;nbsp;smartrics.rest.fitnesse.fixture.support.JSONBodyTypeAdapter.equals(JSONBodyTypeAdapter.java:74)&lt;br/&gt;&amp;nbsp;&amp;nbsp;&amp;nbsp;&amp;nbsp;at&amp;nbsp;smartrics.rest.fitnesse.fixture.RestFixture.process(RestFixture.java:1008)&lt;br/&gt;&amp;nbsp;&amp;nbsp;&amp;nbsp;&amp;nbsp;at&amp;nbsp;smartrics.rest.fitnesse.fixture.RestFixture.completeHttpMethodExecution(RestFixture.java:969)&lt;br/&gt;&amp;nbsp;&amp;nbsp;&amp;nbsp;&amp;nbsp;at&amp;nbsp;smartrics.rest.fitnesse.fixture.RestFixture.doMethod(RestFixture.java:895)&lt;br/&gt;&amp;nbsp;&amp;nbsp;&amp;nbsp;&amp;nbsp;at&amp;nbsp;smartrics.rest.fitnesse.fixture.RestFixture.doMethod(RestFixture.java:883)&lt;br/&gt;&amp;nbsp;&amp;nbsp;&amp;nbsp;&amp;nbsp;at&amp;nbsp;smartrics.rest.fitnesse.fixture.RestFixture.GET(RestFixture.java:557)&lt;br/&gt;&amp;nbsp;&amp;nbsp;&amp;nbsp;&amp;nbsp;at&amp;nbsp;smartrics.rest.fitnesse.fixture.ext.SlimRestFixtureWithSeq.GET(SlimRestFixtureWithSeq.java:308)&lt;br/&gt;&amp;nbsp;&amp;nbsp;&amp;nbsp;&amp;nbsp;at&amp;nbsp;sun.reflect.NativeMethodAccessorImpl.invoke0(Native&amp;nbsp;Method)&lt;br/&gt;&amp;nbsp;&amp;nbsp;&amp;nbsp;&amp;nbsp;at&amp;nbsp;sun.reflect.NativeMethodAccessorImpl.invoke(NativeMethodAccessorImpl.java:62)&lt;br/&gt;&amp;nbsp;&amp;nbsp;&amp;nbsp;&amp;nbsp;at&amp;nbsp;sun.reflect.DelegatingMethodAccessorImpl.invoke(DelegatingMethodAccessorImpl.java:43)&lt;br/&gt;&amp;nbsp;&amp;nbsp;&amp;nbsp;&amp;nbsp;at&amp;nbsp;java.lang.reflect.Method.invoke(Method.java:483)&lt;br/&gt;&amp;nbsp;&amp;nbsp;&amp;nbsp;&amp;nbsp;at&amp;nbsp;smartrics.rest.fitnesse.fixture.RestFixture.processRow(RestFixture.java:818)&lt;br/&gt;&amp;nbsp;&amp;nbsp;&amp;nbsp;&amp;nbsp;at&amp;nbsp;smartrics.rest.fitnesse.fixture.RestFixture.processSlimRow(RestFixture.java:1151)&lt;br/&gt;&amp;nbsp;&amp;nbsp;&amp;nbsp;&amp;nbsp;at&amp;nbsp;smartrics.rest.fitnesse.fixture.RestFixture.doTable(RestFixture.java:362)&lt;br/&gt;&amp;nbsp;&amp;nbsp;&amp;nbsp;&amp;nbsp;at&amp;nbsp;smartrics.rest.fitnesse.fixture.ext.SlimRestFixtureWithSeq.doTable(SlimRestFixtureWithSeq.java:271)&lt;br/&gt;&amp;nbsp;&amp;nbsp;&amp;nbsp;&amp;nbsp;at&amp;nbsp;sun.reflect.NativeMethodAccessorImpl.invoke0(Native&amp;nbsp;Method)&lt;br/&gt;&amp;nbsp;&amp;nbsp;&amp;nbsp;&amp;nbsp;at&amp;nbsp;sun.reflect.NativeMethodAccessorImpl.invoke(NativeMethodAccessorImpl.java:62)&lt;br/&gt;&amp;nbsp;&amp;nbsp;&amp;nbsp;&amp;nbsp;at&amp;nbsp;sun.reflect.DelegatingMethodAccessorImpl.invoke(DelegatingMethodAccessorImpl.java:43)&lt;br/&gt;&amp;nbsp;&amp;nbsp;&amp;nbsp;&amp;nbsp;at&amp;nbsp;java.lang.reflect.Method.invoke(Method.java:483)&lt;br/&gt;&amp;nbsp;&amp;nbsp;&amp;nbsp;&amp;nbsp;at&amp;nbsp;fitnesse.slim.fixtureInteraction.DefaultInteraction.methodInvoke(DefaultInteraction.java:16)&lt;br/&gt;&amp;nbsp;&amp;nbsp;&amp;nbsp;&amp;nbsp;at&amp;nbsp;fitnesse.slim.MethodExecutor.callMethod(MethodExecutor.java:43)&lt;br/&gt;&amp;nbsp;&amp;nbsp;&amp;nbsp;&amp;nbsp;at&amp;nbsp;fitnesse.slim.MethodExecutor.invokeMethod(MethodExecutor.java:30)&lt;br/&gt;&amp;nbsp;&amp;nbsp;&amp;nbsp;&amp;nbsp;at&amp;nbsp;fitnesse.slim.MethodExecutor.findAndInvoke(MethodExecutor.java:52)&lt;br/&gt;&amp;nbsp;&amp;nbsp;&amp;nbsp;&amp;nbsp;at&amp;nbsp;fitnesse.slim.FixtureMethodExecutor.execute(FixtureMethodExecutor.java:20)&lt;br/&gt;&amp;nbsp;&amp;nbsp;&amp;nbsp;&amp;nbsp;at&amp;nbsp;fitnesse.slim.StatementExecutor.getMethodExecutionResult(StatementExecutor.java:123)&lt;br/&gt;&amp;nbsp;&amp;nbsp;&amp;nbsp;&amp;nbsp;at&amp;nbsp;fitnesse.slim.StatementExecutor.call(StatementExecutor.java:101)&lt;br/&gt;&amp;nbsp;&amp;nbsp;&amp;nbsp;&amp;nbsp;at&amp;nbsp;fitnesse.slim.instructions.CallInstruction.executeInternal(CallInstruction.java:35)&lt;br/&gt;&amp;nbsp;&amp;nbsp;&amp;nbsp;&amp;nbsp;at&amp;nbsp;fitnesse.slim.instructions.Instruction.execute(Instruction.java:30)&lt;br/&gt;&amp;nbsp;&amp;nbsp;&amp;nbsp;&amp;nbsp;at&amp;nbsp;fitnesse.slim.ListExecutor$Executive.executeStatement(ListExecutor.java:49)&lt;br/&gt;&amp;nbsp;&amp;nbsp;&amp;nbsp;&amp;nbsp;at&amp;nbsp;fitnesse.slim.ListExecutor$Executive.executeStatements(ListExecutor.java:43)&lt;br/&gt;&amp;nbsp;&amp;nbsp;&amp;nbsp;&amp;nbsp;at&amp;nbsp;fitnesse.slim.ListExecutor.execute(ListExecutor.java:83)&lt;br/&gt;&amp;nbsp;&amp;nbsp;&amp;nbsp;&amp;nbsp;at&amp;nbsp;fitnesse.slim.SlimServer.executeInstructions(SlimServer.java:107)&lt;br/&gt;&amp;nbsp;&amp;nbsp;&amp;nbsp;&amp;nbsp;at&amp;nbsp;fitnesse.slim.SlimServer.processTheInstructions(SlimServer.java:94)&lt;br/&gt;&amp;nbsp;&amp;nbsp;&amp;nbsp;&amp;nbsp;at&amp;nbsp;fitnesse.slim.SlimServer.processOneSetOfInstructions(SlimServer.java:69)&lt;br/&gt;&amp;nbsp;&amp;nbsp;&amp;nbsp;&amp;nbsp;at&amp;nbsp;fitnesse.slim.SlimServer.tryProcessInstructions(SlimServer.java:55)&lt;br/&gt;&amp;nbsp;&amp;nbsp;&amp;nbsp;&amp;nbsp;at&amp;nbsp;fitnesse.slim.SlimServer.serve(SlimServer.java:41)&lt;br/&gt;&amp;nbsp;&amp;nbsp;&amp;nbsp;&amp;nbsp;at&amp;nbsp;fitnesse.slim.SlimService.handle(SlimService.java:168)&lt;br/&gt;&amp;nbsp;&amp;nbsp;&amp;nbsp;&amp;nbsp;at&amp;nbsp;fitnesse.slim.SlimService.acceptOne(SlimService.java:176)&lt;br/&gt;&amp;nbsp;&amp;nbsp;&amp;nbsp;&amp;nbsp;at&amp;nbsp;fitnesse.slim.SlimService.accept(SlimService.java:138)&lt;br/&gt;&amp;nbsp;&amp;nbsp;&amp;nbsp;&amp;nbsp;at&amp;nbsp;fitnesse.slim.SlimService.startWithFactory(SlimService.java:66)&lt;br/&gt;&amp;nbsp;&amp;nbsp;&amp;nbsp;&amp;nbsp;at&amp;nbsp;fitnesse.slim.SlimService.main(SlimService.java:52)&lt;br/&gt;Caused&amp;nbsp;by:&amp;nbsp;java.lang.IllegalArgumentException:&amp;nbsp;XPath&amp;nbsp;expectations&amp;nbsp;in&amp;nbsp;JSON&amp;nbsp;content&amp;nbsp;are&amp;nbsp;not&amp;nbsp;supported&amp;nbsp;anymore.&amp;nbsp;Please&amp;nbsp;use&amp;nbsp;JavaScript&amp;nbsp;expressions.&lt;br/&gt;&amp;nbsp;&amp;nbsp;&amp;nbsp;&amp;nbsp;at&amp;nbsp;smartrics.rest.fitnesse.fixture.support.JSONBodyTypeAdapter.eval(JSONBodyTypeAdapter.java:45)&lt;br/&gt;&amp;nbsp;&amp;nbsp;&amp;nbsp;&amp;nbsp;at&amp;nbsp;smartrics.rest.fitnesse.fixture.support.XPathBodyTypeAdapter.equals(XPathBodyTypeAdapter.java:72)&lt;br/&gt;&amp;nbsp;&amp;nbsp;&amp;nbsp;&amp;nbsp;...&amp;nbsp;41&amp;nbsp;more&lt;br/&gt;&lt;/code&gt;&lt;/div&gt;&lt;/span&gt;&lt;/td&gt;
	&lt;/tr&gt;
&lt;/table&gt;
&lt;br/&gt;&lt;img src="files/restfixture/getChannels.png"/&gt;&lt;br/&gt;</content>
    <relativePageName>ScheduleApiChannels</relativePageName>
            <instructions>
            <instructionResult>
        <instruction>{id='tableTable_0_0', instruction='make', instanceName='tableTable_0', className='smartrics.rest.fitnesse.fixture.ext.SlimRestFixtureWithSeq', args=[http://lgi.io/kraken/v2/schedule, getChannels.png viewBox="0 0 400 400" width="400" height="400"]}</instruction>
        <slimResult>pass(Table:smartrics.rest.fitnesse.fixture.ext.SlimRestFixtureWithSeq)</slimResult>
                <expectation>
                    <status>pass</status>
                    <instructionId>tableTable_0_0</instructionId>
                    <col>0</col>
                              <row>0</row>
                    <type>ConstructionExpectation</type>
                                        <evaluationMessage>Table:smartrics.rest.fitnesse.fixture.ext.SlimRestFixtureWithSeq</evaluationMessage>
                  </expectation>
              </instructionResult>
            <instructionResult>
        <instruction>{id='tableTable_0_1', instruction='call', instanceName='tableTable_0', methodName='doTable', args=[[[GET, /data/NL/channels.json, , , //title[text()='RestFixtureInstallTest']]]]}</instruction>
        <slimResult>error()</slimResult>
                <expectation>
                    <status>error</status>
                    <instructionId>tableTable_0_1</instructionId>
                              <type>TableTableExpectation</type>
                                      </expectation>
              </instructionResult>
          </instructions>
      </result>
      <finalCounts>
    <right>0</right>
    <wrong>0</wrong>
    <ignores>0</ignores>
    <exceptions>1</exceptions>
  </finalCounts>
  <totalRunTimeInMillis>1423</totalRunTimeInMillis>
  
</testResults>

